{
  "Concilium perpetuum der Universität Leipzig": null,
  "Magdeburgische Landstände": null,
  "Magdeburgische Regierung zu Halle": null,
  "Rat der Stadt Halle": null,
  "Rat der Stadt Leipzig": "4445829-0",
  "[Kursächsisches Geheimes Ratskollegium]": null,
  "das Concilium perpetuum der Universität Leipzig": null,
  "das Geistliche Ministerium zu Leipzig": null,
  "das Oberkonsistorium Dresden": "1120152372",
  "das kursächsische Geheime Ratskollegium": null,
  "den Rat der Stadt Halle": null,
  "den Rat der Stadt Leipzig": "4445829-0",
  "den Schöppenstuhl zu Leipzig": "6516522-6",
  "die Magdeburgische Regierung zu Halle": null,
  "die Magdeburgischen Landstände": null
}
