{
  "Annaberg": "8643037",
  "Berlin": "2950159",
  "Cölln": "7576815",
  "Dresden": "2935022",
  "Erfurt": "2929670",
  "Frankfurt [am Main]": "2925533",
  "Frankfurt [an der Oder]": "2925535",
  "Halle": "2911522",
  "Hamburg": "2911298",
  "Königsberg": "554234",
  "Leipzig": "2879139",
  "Magdeburg": "2874545",
  "Stockholm": "2673730",
  "Weimar": "2812482",
  "[Annaberg": "8643037",
  "[Annaberg]": "8643037",
  "[Berlin": "2950159",
  "[Berlin/Cölln": "7576815",
  "[Cölln": "7576815",
  "[Dresden": "2935022",
  "[Dresden]": "2935022",
  "[Dänemark": "2623032",
  "[Erfurt": "2929670",
  "[Frankfurt/Main]": "2925533",
  "[Frankfurt/O.": "2925535",
  "[Halle": "2911522",
  "[Halle]": "2911522",
  "[Hamburg": "2911298",
  "[Hamburg]": "2911298",
  "[Leipzig": "2879139",
  "[Leipzig]": "2879139",
  "[Stockholm": "2673730",
  "[Stuttgart": "2825297",
  "[Utrecht": "2745912",
  "[Zeitz]": "2804922"
}
